inst,rep_1,rep_2,rep_3,rep_4,rep_5
DD_Ta081,586270,586270,586270,581779,579134
DD_Ta082,503762,506915,506915,506915,495980
DD_Ta083,678254,677519,678254,678254,678254
DD_Ta084,734183,733553,734183,731339,729171
DD_Ta085,674241,674241,670229,674241,674241
DD_Ta086,705645,697945,705645,698813,695439
DD_Ta087,638587,649057,649057,649057,646303
DD_Ta088,579761,575549,580833,571633,580833
DD_Ta089,767018,767601,767601,767128,765150
DD_Ta090,642808,644880,644880,644880,644880
